module golang-chat-backend

go 1.20

require (
	firebase.google.com/go v3.13.0+incompatible
	github.com/dgrijalva/jwt-go v3.2.0+incompatible
	github.com/gin-gonic/gin v1.9.1
	github.com/joho/godotenv v1.5.1
	go.mongodb.org/mongo-driver v1.11.6
	golang.org/x/crypto v0.9.0
	google.golang.org/api v0.125.0
)

require (
	github.com/BurntSushi/toml v1.2.1 // indirect
	github.com/CloudyKit/fastprinter v0.0.0-20200109182630-33d98a066a53 // indirect
	github.com/CloudyKit/jet/v6 v6.2.0 // indirect
	github.com/Joker/jade v1.1.3 // indirect
	github.com/Shopify/goreferrer v0.0.0-20220729165902-8cddb4f5de06 // indirect
	github.com/andybalholm/brotli v1.0.5 // indirect
	github.com/aymerick/douceur v0.2.0 // indirect
	github.com/eknkc/amber v0.0.0-20171010120322-cdade1c07385 // indirect
	github.com/fatih/structs v1.1.0 // indirect
	github.com/flosch/pongo2/v4 v4.0.2 // indirect
	github.com/gorilla/css v1.0.0 // indirect
	github.com/iris-contrib/schema v0.0.6 // indirect
	github.com/josharian/intern v1.0.0 // indirect
	github.com/kataras/blocks v0.0.7 // indirect
	github.com/kataras/golog v0.1.8 // indirect
	github.com/kataras/iris/v12 v12.2.0 // indirect
	github.com/kataras/pio v0.0.11 // indirect
	github.com/kataras/sitemap v0.0.6 // indirect
	github.com/kataras/tunnel v0.0.4 // indirect
	github.com/mailgun/raymond/v2 v2.0.48 // indirect
	github.com/mailru/easyjson v0.7.7 // indirect
	github.com/microcosm-cc/bluemonday v1.0.23 // indirect
	github.com/russross/blackfriday/v2 v2.1.0 // indirect
	github.com/schollz/closestmatch v2.1.0+incompatible // indirect
	github.com/sirupsen/logrus v1.8.1 // indirect
	github.com/tdewolff/minify/v2 v2.12.4 // indirect
	github.com/tdewolff/parse/v2 v2.6.4 // indirect
	github.com/valyala/bytebufferpool v1.0.0 // indirect
	github.com/vmihailenco/msgpack/v5 v5.3.5 // indirect
	github.com/vmihailenco/tagparser/v2 v2.0.0 // indirect
	github.com/yosssi/ace v0.0.5 // indirect
	gopkg.in/ini.v1 v1.67.0 // indirect
)

require (
	cloud.google.com/go v0.110.2 // indirect
	cloud.google.com/go/compute v1.19.3 // indirect
	cloud.google.com/go/compute/metadata v0.2.3 // indirect
	cloud.google.com/go/firestore v1.10.0 // indirect
	cloud.google.com/go/iam v0.13.0 // indirect
	cloud.google.com/go/longrunning v0.4.2 // indirect
	cloud.google.com/go/storage v1.30.1
	github.com/bytedance/sonic v1.9.1 // indirect
	github.com/chenzhuoyu/base64x v0.0.0-20221115062448-fe3a3abad311 // indirect
	github.com/gabriel-vasile/mimetype v1.4.2 // indirect
	github.com/gin-contrib/sse v0.1.0 // indirect
	github.com/go-playground/locales v0.14.1 // indirect
	github.com/go-playground/universal-translator v0.18.1 // indirect
	github.com/go-playground/validator/v10 v10.14.0 // indirect
	github.com/goccy/go-json v0.10.2 // indirect
	github.com/gofrs/uuid v4.0.0+incompatible // indirect
	github.com/golang/groupcache v0.0.0-20210331224755-41bb18bfe9da // indirect
	github.com/golang/protobuf v1.5.3 // indirect
	github.com/golang/snappy v0.0.4 // indirect
	github.com/gomodule/redigo v2.0.0+incompatible // indirect
	github.com/google/go-cmp v0.5.9 // indirect
	github.com/google/s2a-go v0.1.4 // indirect
	github.com/google/uuid v1.3.0
	github.com/googleapis/enterprise-certificate-proxy v0.2.3 // indirect
	github.com/googleapis/gax-go/v2 v2.10.0 // indirect
	github.com/googollee/go-engine.io v1.4.2
	github.com/googollee/go-socket.io v1.7.0
	github.com/gorilla/websocket v1.5.0 // indirect
	github.com/json-iterator/go v1.1.12 // indirect
	github.com/klauspost/compress v1.16.0 // indirect
	github.com/klauspost/cpuid/v2 v2.2.4 // indirect
	github.com/leodido/go-urn v1.2.4 // indirect
	github.com/mattn/go-isatty v0.0.19 // indirect
	github.com/modern-go/concurrent v0.0.0-20180306012644-bacd9c7ef1dd // indirect
	github.com/modern-go/reflect2 v1.0.2 // indirect
	github.com/montanaflynn/stats v0.0.0-20171201202039-1bf9dbcd8cbe // indirect
	github.com/pelletier/go-toml/v2 v2.0.8 // indirect
	github.com/pkg/errors v0.9.1 // indirect
	github.com/twitchyliquid64/golang-asm v0.15.1 // indirect
	github.com/ugorji/go/codec v1.2.11 // indirect
	github.com/xdg-go/pbkdf2 v1.0.0 // indirect
	github.com/xdg-go/scram v1.1.1 // indirect
	github.com/xdg-go/stringprep v1.0.3 // indirect
	github.com/youmark/pkcs8 v0.0.0-20181117223130-1be2e3e5546d // indirect
	go.opencensus.io v0.24.0 // indirect
	golang.org/x/arch v0.3.0 // indirect
	golang.org/x/net v0.10.0 // indirect
	golang.org/x/oauth2 v0.8.0 // indirect
	golang.org/x/sync v0.2.0 // indirect
	golang.org/x/sys v0.8.0 // indirect
	golang.org/x/text v0.9.0 // indirect
	golang.org/x/time v0.3.0 // indirect
	golang.org/x/xerrors v0.0.0-20220907171357-04be3eba64a2 // indirect
	google.golang.org/appengine v1.6.7 // indirect
	google.golang.org/genproto v0.0.0-20230530153820-e85fd2cbaebc // indirect
	google.golang.org/genproto/googleapis/api v0.0.0-20230530153820-e85fd2cbaebc // indirect
	google.golang.org/genproto/googleapis/rpc v0.0.0-20230530153820-e85fd2cbaebc // indirect
	google.golang.org/grpc v1.55.0 // indirect
	google.golang.org/protobuf v1.30.0 // indirect
	gopkg.in/yaml.v3 v3.0.1 // indirect
)
